<svg width="33" height="33" viewBox="0 0 33 33" fill="none" xmlns="http://www.w3.org/2000/svg">
<path d="M19.9375 23.375H22.6875C23.2604 23.375 23.7472 23.1743 24.1478 22.7728C24.5493 22.3722 24.75 21.8854 24.75 21.3125V15.8125H26.125V13.75H22.6875V12.375H19.9375V13.75H16.5V15.8125H17.875V21.3125C17.875 21.8854 18.0757 22.3722 18.4772 22.7728C18.8778 23.1743 19.3646 23.375 19.9375 23.375ZM19.9375 21.3125V15.8125H22.6875V21.3125H19.9375ZM5.5 27.5C4.74375 27.5 4.09658 27.231 3.5585 26.6929C3.0195 26.1539 2.75 25.5063 2.75 24.75V8.25C2.75 7.49375 3.0195 6.84658 3.5585 6.3085C4.09658 5.7695 4.74375 5.5 5.5 5.5H13.75L16.5 8.25H27.5C28.2563 8.25 28.9039 8.5195 29.4429 9.0585C29.981 9.59658 30.25 10.2437 30.25 11V24.75C30.25 25.5063 29.981 26.1539 29.4429 26.6929C28.9039 27.231 28.2563 27.5 27.5 27.5H5.5Z" fill="black"/>
</svg>
