<?xml version="1.0" encoding="UTF-8"?>
<svg xmlns="http://www.w3.org/2000/svg" version="1.1" width="28px" height="28px" style="shape-rendering:geometricPrecision; text-rendering:geometricPrecision; image-rendering:optimizeQuality; fill-rule:evenodd; clip-rule:evenodd" xmlns:xlink="http://www.w3.org/1999/xlink">
<g><path  fill="#141414" d="M 8.5,-0.5 C 14.8333,-0.5 21.1667,-0.5 27.5,-0.5C 27.5,5.83333 27.5,12.1667 27.5,18.5C 24.8333,18.5 22.1667,18.5 19.5,18.5C 19.5,21.1667 19.5,23.8333 19.5,26.5C 13.1667,26.5 6.83333,26.5 0.5,26.5C 0.5,20.1667 0.5,13.8333 0.5,7.5C 3.16667,7.5 5.83333,7.5 8.5,7.5C 8.5,4.83333 8.5,2.16667 8.5,-0.5 Z"/></g>
<g><path  fill="#fefffe" d="M 10.5,1.5 C 15.5,1.5 20.5,1.5 25.5,1.5C 25.5,6.5 25.5,11.5 25.5,16.5C 23.5,16.5 21.5,16.5 19.5,16.5C 19.5,13.5 19.5,10.5 19.5,7.5C 16.5,7.5 13.5,7.5 10.5,7.5C 10.5,5.5 10.5,3.5 10.5,1.5 Z"/></g>
<g><path  fill="#fefefe" d="M 2.5,10.5 C 2.89657,9.47498 3.56323,9.30831 4.5,10C 8.66667,14.1667 12.8333,18.3333 17,22.5C 17.6667,23.1667 17.6667,23.8333 17,24.5C 12.2979,19.6301 7.46458,14.9634 2.5,10.5 Z"/></g>
<g><path  fill="#fefefe" d="M 6.5,10.5 C 6.89657,9.47498 7.56323,9.30831 8.5,10C 11.3333,12.8333 14.1667,15.6667 17,18.5C 17.6667,19.1667 17.6667,19.8333 17,20.5C 13.6309,16.9626 10.1309,13.6293 6.5,10.5 Z"/></g>
<g><path  fill="#fefefe" d="M 10.5,10.5 C 10.8966,9.47498 11.5632,9.30831 12.5,10C 14.9535,11.7401 16.4535,13.9067 17,16.5C 14.9633,14.2941 12.7966,12.2941 10.5,10.5 Z"/></g>
<g><path  fill="#fefefe" d="M 14.5,10.5 C 16.4959,9.31225 17.3293,9.97891 17,12.5C 16.2917,11.6195 15.4584,10.9528 14.5,10.5 Z"/></g>
<g><path  fill="#fefefe" d="M 2.5,12.5 C 6.63104,16.1296 10.631,19.963 14.5,24C 13.8333,24.6667 13.1667,24.6667 12.5,24C 8.56148,20.5706 5.22815,16.7372 2.5,12.5 Z"/></g>
<g><path  fill="#fefefe" d="M 2.5,16.5 C 5.29709,18.795 7.96376,21.295 10.5,24C 6.7981,22.8044 4.13144,20.3044 2.5,16.5 Z"/></g>
<g><path  fill="#fefefe" d="M 2.5,20.5 C 3.9616,21.4577 5.29493,22.6244 6.5,24C 4.15891,24.1681 2.82558,23.0014 2.5,20.5 Z"/></g>
</svg>
