<svg fill="#D9D9D9" width="22" viewBox="0 0 28 42" xmlns="http://www.w3.org/2000/svg">
<path d="M10.2091 0.545547C10.1039 0.592548 9.83594 0.659714 9.83594 0.700001C9.92794 0.585857 9.83594 0.73357 9.83594 0.700001C9.83594 0.700001 9.63368 0.700001 9.32483 0.700001C8.87797 0.700001 8.61894 0.961834 8.3026 1.22222C8.10546 1.48408 8.35551 1.22222 7.79149 1.74445L7.40305 1.94883L6.76927 2.26667C6.46698 2.58224 6.3173 2.70832 6.25816 2.78889C6.15959 2.90974 6.10224 3.31111 5.79996 3.31111C5.27544 3.94681 5.38085 3.68562 5.28885 3.83333C5.79996 3.31111 5.22914 4.11335 5.28885 3.83333C5.28885 4.17576 4.85334 4.72854 4.75477 4.72854C4.72848 4.72854 4.43277 4.99712 4.11077 5.32611C3.51277 5.92369 3.7026 5.92222 3.51277 6.2594C3.3181 6.60516 3.19149 6.96667 3.09219 7.11211L2.82277 7.32026L2.78991 12.2083L2.75705 17.0963L2.59934 17.2238C2.48762 17.3178 2.34305 17.3514 2.05391 17.3514C1.67934 17.3514 1.64648 17.3648 1.4362 17.5998C1.16019 17.9087 1.16677 17.902 0.871052 18.184L0.621338 18.4055V19.4933V20.5877L0.811909 20.7623C0.910481 20.863 1.07477 21.0107 1.17334 21.0913C1.33762 21.2323 1.34419 21.2524 1.34419 22.0178V22.8034L1.56105 22.9981C1.67277 23.1055 1.83705 23.2533 1.92248 23.3271C2.04077 23.4345 2.16927 23.3488 2.16927 23.6778C2.7826 24.0202 2.16927 24.2 2.78991 24.5961C3.19077 24.6364 3.28934 24.67 3.37477 24.7975C3.52591 25.0191 3.78219 25.2877 4.00562 25.4488L4.20277 25.5898L4.20934 27.0401C4.21591 27.8391 4.24219 28.571 4.26191 28.665C4.28819 28.759 4.41305 28.9067 4.57077 29.0007C4.87305 29.2021 4.95848 29.3834 4.95848 29.8467C4.95848 30.1958 4.98477 30.2361 5.44477 30.6054C5.60905 30.7397 5.64191 30.8068 5.64848 31.1224C5.66819 31.6394 5.72734 31.7737 6.01648 31.955C6.15448 32.049 6.31219 32.2101 6.36477 32.3108C6.41734 32.4183 6.58162 32.5861 6.73277 32.6868C6.87734 32.7875 7.02848 32.942 7.06134 33.0293C7.09419 33.1233 7.12048 34.6071 7.11391 36.4535C7.10734 40.3613 7.02191 40.0255 8.02734 39.992C8.76334 39.9718 9.06562 40.0524 9.19048 40.3008C9.39419 40.697 9.49934 40.744 10.3208 40.744L11.0831 40.7507L11.2539 40.9655C11.3525 41.0797 11.4773 41.2408 11.5299 41.3214C11.6285 41.4624 11.6416 41.4624 14.5265 41.4624C16.1168 41.4624 17.4705 41.4423 17.5296 41.4154C17.5888 41.3953 17.7071 41.261 17.7793 41.12C17.9765 40.7641 18.1868 40.6903 18.857 40.7373C19.5405 40.7843 19.7508 40.7171 19.9151 40.4083C20.0793 40.0927 20.3028 39.9853 20.7693 39.9853C21.1965 39.992 21.2885 39.9181 21.3608 39.5287C21.4265 39.1728 21.3345 38.8505 21.1373 38.723C21.0388 38.6625 20.8942 38.5484 20.8153 38.4745C20.6642 38.347 20.6642 38.347 20.6642 36.0708C20.6642 34.634 20.6905 33.7477 20.7299 33.6604C20.7693 33.5933 20.8876 33.4858 20.9928 33.4321C21.1045 33.3717 21.2688 33.2105 21.3608 33.0628C21.4593 32.9151 21.6302 32.7338 21.7485 32.66C21.9982 32.5055 22.1099 32.237 22.1099 31.8073C22.1099 31.5051 22.1428 31.4514 22.5896 31.0955C22.7473 30.968 22.7802 30.8807 22.8262 30.451C22.8656 30.0481 22.9051 29.934 23.0233 29.8467C23.5425 29.4707 23.5228 29.511 23.503 28.7925C23.4833 27.9667 23.5425 27.772 23.9171 27.5034C24.1471 27.3423 24.2128 27.2483 24.2128 27.1073C24.2128 26.9998 24.2193 26.6373 24.2325 26.2948L24.2456 25.6771L24.607 25.3213C24.8042 25.1265 25.0342 24.8848 25.1131 24.7841C25.2379 24.623 25.2971 24.6028 25.6453 24.6028C26.3813 23.9583 26.1185 24.2 26.3813 23.9583C26.3813 23.6024 26.5193 23.1928 26.6376 23.1928C26.6705 23.1928 26.7888 23.1123 26.9005 23.0183L27.1042 22.8437L27.2137 20.0222C27.2137 16.8665 27.1962 17.3514 26.1185 17.3514C25.7176 17.3514 25.3299 17.3178 25.2379 17.2775C25.0211 17.1768 24.9093 16.8277 24.9553 16.3913C24.9882 16.0421 25.0276 15.9817 25.4876 15.6527L25.6585 15.5318V14.33V13.1281L25.4876 12.9938C25.3562 12.8931 25.2182 12.8528 24.9553 12.8528C24.6333 12.8528 24.5742 12.8327 24.4033 12.6313C24.2982 12.5171 24.1931 12.3963 24.1668 12.3694C23.3782 11.604 22.8328 11.04 22.7736 10.9258C22.7276 10.8385 22.5502 10.7244 22.3136 10.6304C21.8602 10.4625 21.6302 10.241 21.4856 9.83812C21.4199 9.63669 21.2293 9.38826 20.8613 9.01897C20.3291 8.48854 20.3291 8.48854 19.9808 8.48854C19.4616 8.48854 19.3105 8.63626 19.2513 9.20026C19.2119 9.56283 19.1725 9.67697 19.041 9.79112C18.9096 9.90526 17.1813 11.6577 16.9513 11.9128C16.9185 11.9531 16.7673 12.1008 16.6228 12.2351C16.4782 12.3761 16.2942 12.5708 16.2153 12.6715C16.0905 12.8327 16.0313 12.8528 15.6699 12.8528C15.2953 12.8528 15.2493 12.8394 15.0851 12.6447C14.9931 12.5305 14.8419 12.3694 14.7565 12.2888C14.1979 11.7785 14.2242 11.8323 14.2242 11.2615C14.2242 10.9728 14.2505 10.6371 14.2833 10.5163C14.3228 10.3753 14.5922 10.0395 15.0259 9.58969C15.4005 9.20026 15.7619 8.82426 15.8342 8.7504C15.9065 8.66983 16.2153 8.35426 16.5242 8.0454C16.8331 7.73655 17.1748 7.3874 17.2931 7.26654C17.4048 7.14569 17.5625 6.99126 17.6348 6.92411C17.7136 6.86369 17.7728 6.74955 17.7728 6.67569C17.7728 6.58169 17.2273 5.98412 16.2022 4.9434C15.3348 4.07055 14.5331 3.27155 14.4279 3.17754L14.2242 2.99626V2.25097C14.2242 1.43183 14.2308 1.4184 14.7105 1.08269C14.9076 0.941685 14.9339 0.69326 14.7696 0.558975C14.6251 0.431404 10.4982 0.42469 10.2091 0.545547Z" />
<path d="M16.5771 0.47849C16.0514 0.512061 15.9331 0.552347 15.8871 0.706776C15.8477 0.820918 15.9002 0.914918 16.1105 1.12978C16.3537 1.37149 17.5431 2.6002 17.7271 2.7882C17.7665 2.82849 18.2134 3.29178 18.7325 3.82892L19.6657 4.79578H20.0599C20.3885 4.79578 20.4805 4.76892 20.5857 4.64135C20.8222 4.36606 21.0917 4.09078 21.2691 3.94306C21.4334 3.80206 21.4399 3.7752 21.4399 3.09035C21.4399 2.70092 21.4071 2.31149 21.3677 2.2242C21.2691 2.00263 21.0457 1.90863 20.6185 1.90863C20.2439 1.90863 20.1519 1.85492 19.9482 1.50578C19.8168 1.27078 19.5671 1.17006 19.1334 1.17006C18.8639 1.17006 18.7982 1.1432 18.6537 0.961918C18.5617 0.847775 18.4828 0.726918 18.4828 0.693347C18.4828 0.653061 18.3777 0.579204 18.2528 0.52549C18.0359 0.438204 17.5365 0.418061 16.5771 0.47849Z" />
<path d="M23.5757 4.94353C23.5035 4.98382 23.3589 5.09125 23.2537 5.18525C23.142 5.27253 22.9055 5.41353 22.7149 5.50082C22.5177 5.58811 22.3206 5.73582 22.2549 5.84996C22.1892 5.95068 22.038 6.15211 21.9197 6.29311C21.8015 6.42739 21.7029 6.58853 21.7029 6.64896C21.7029 6.80339 22.0117 7.15925 23.3326 8.52225C23.9503 9.16682 24.4629 9.72411 24.4629 9.75096C24.4629 9.85168 24.7915 9.96582 25.0806 9.96582C25.2712 9.96582 25.4223 9.91882 25.5406 9.82482C25.7049 9.69053 25.7115 9.67039 25.7115 8.90496V8.11939L25.3763 7.81053C25.0412 7.50839 25.0346 7.50168 24.9952 7.01153C24.9557 6.62882 24.9229 6.50125 24.8243 6.44753C24.7586 6.40725 24.614 6.29311 24.5023 6.19911C24.3249 6.03796 24.2986 5.97753 24.2789 5.54111C24.2526 5.14496 24.2263 5.04425 24.1146 4.96368C23.9503 4.84282 23.7597 4.83611 23.5757 4.94353Z" />
</svg>
