<svg width="22" height="23" viewBox="0 0 22 23" fill="none" xmlns="http://www.w3.org/2000/svg">
<g clip-path="url(#clip0_228_496)">
<path d="M11.8267 1.25511C11.8487 1.58197 11.9147 1.88054 12.0058 2.0534C12.0373 2.11626 12.1504 2.26397 12.2573 2.38654C12.383 2.53111 12.5087 2.72597 12.625 2.95854C12.7193 3.15026 12.8544 3.37654 12.9236 3.4614C13.0838 3.65311 13.2284 3.94226 13.3698 4.3414C13.5018 4.72797 13.571 4.86626 13.7533 5.1114C13.9733 5.41311 14.0518 5.73997 14.2247 7.08511C14.2907 7.59426 14.3033 7.80483 14.2907 8.09083C14.2718 8.45226 14.143 9.20654 13.9984 9.80368C13.8853 10.2751 13.8916 10.668 14.0204 11.0357C14.1901 11.526 14.3441 11.8088 14.517 11.9534C14.6018 12.0257 14.7527 12.2048 14.847 12.3494C14.9696 12.5348 15.0921 12.6731 15.2587 12.8114C15.4787 12.9874 15.5101 13.0314 15.6673 13.3457C15.9187 13.8485 15.9281 13.9648 15.727 14.188C15.5824 14.3483 15.3656 14.4457 14.979 14.5305C14.6176 14.606 14.4856 14.6814 14.297 14.9171C14.1241 15.134 14.0173 15.3728 13.9984 15.5771C13.989 15.6683 14.011 16.0045 14.0424 16.322C14.1116 17.0165 14.099 17.136 13.9073 17.5194C13.7501 17.8337 13.7344 17.9437 13.8161 18.2548C13.8916 18.5377 13.8633 18.6823 13.6967 18.896C13.4233 19.2448 13.4233 19.2323 13.4516 20.0965C13.4578 20.348 13.4453 20.4391 13.3761 20.678C13.2347 21.1525 13.1436 21.2405 12.6878 21.3474C12.2824 21.4417 9.64241 21.3977 8.69012 21.2783C8.30669 21.2311 8.19355 21.2563 8.10869 21.3945C8.03641 21.514 8.03012 21.6303 8.08984 21.7748C8.20298 22.0451 8.63669 22.1991 9.79012 22.3751C10.3778 22.4631 10.5947 22.5165 10.7267 22.6045C10.8241 22.6705 10.9687 22.856 10.9687 22.9157C10.9687 22.9471 11.1101 22.9565 11.657 22.9565H12.3453L12.427 22.8151C12.5433 22.6203 12.7161 22.5134 13.2756 22.2934C13.8821 22.0577 13.9701 21.9948 14.1241 21.6963C14.1933 21.5674 14.3253 21.3505 14.4196 21.2123C14.6553 20.876 14.7024 20.7 14.7558 20.0148C14.803 19.3863 14.8156 19.3423 15.0544 18.9683C15.1424 18.83 15.2273 18.6728 15.243 18.6163C15.2587 18.5628 15.265 18.3648 15.2524 18.1794L15.2336 17.84L15.397 17.5194C15.5824 17.1454 15.5981 17.0197 15.4913 16.6394C15.3687 16.2025 15.4473 16.0265 15.8873 15.7374C16.0256 15.6494 16.2173 15.5143 16.3116 15.4388C16.4058 15.3634 16.5913 15.2283 16.7233 15.1403C17.0156 14.9423 17.113 14.8323 17.179 14.6185C17.2544 14.3734 17.2701 13.8705 17.2104 13.6128C17.1381 13.3048 17.0564 13.1665 16.7673 12.868C16.6258 12.7203 16.4624 12.538 16.4058 12.4594C16.3461 12.3808 16.2047 12.2174 16.0884 12.0948C15.9596 11.9565 15.8276 11.7711 15.7458 11.6108C15.639 11.4128 15.5604 11.3091 15.3781 11.1457C15.0764 10.8723 15.0387 10.7748 15.0387 10.2908C15.0387 9.89797 15.0418 9.88854 15.3687 9.28511C15.5133 9.02111 15.5604 8.74768 15.5793 8.06883C15.6044 7.21711 15.5478 6.86197 15.3027 6.32768C15.2304 6.17054 15.1267 5.84368 15.0544 5.54826C14.8313 4.65568 14.7496 4.43568 14.4918 4.05226C14.4007 3.92026 14.3096 3.70654 14.1838 3.3294L14.0078 2.79511L13.7501 2.54368C13.5553 2.35511 13.461 2.2294 13.3636 2.04083C13.2913 1.90254 13.1467 1.69197 13.0461 1.57254C12.867 1.36826 12.7916 1.19854 12.7916 1.00368C12.7916 0.962826 12.7098 0.956541 12.2981 0.956541H11.8078L11.8267 1.25511Z" fill="black"/>
</g>
<defs>
<clipPath id="clip0_228_496">
<rect width="22" height="22" fill="white" transform="translate(0 0.956543)"/>
</clipPath>
</defs>
</svg>
