<svg version="1.0" xmlns="http://www.w3.org/2000/svg"
 width="23pt" height="23pt" viewBox="0 0 300.000000 300.000000"
 preserveAspectRatio="xMidYMid meet">

<g transform="translate(0.000000,300.000000) scale(0.100000,-0.100000)"
fill="#000000" stroke="none">
<path d="M825 2424 c-402 -61 -690 -323 -792 -719 -25 -98 -24 -303 1 -405 11
-41 23 -79 27 -85 5 -5 9 -16 9 -26 0 -21 67 -152 109 -213 92 -134 260 -265
425 -331 147 -58 392 -74 544 -35 130 33 223 74 307 134 27 20 53 36 57 36 4
0 41 -22 83 -49 85 -56 195 -101 309 -126 118 -26 329 -17 446 20 304 97 524
316 620 620 30 94 39 344 17 450 -37 173 -125 335 -251 461 -175 175 -394 265
-646 266 -206 1 -381 -56 -562 -184 -13 -10 -23 -7 -50 13 -85 65 -210 122
-338 154 -64 16 -257 28 -315 19z m1485 -89 c30 -9 69 -23 87 -31 17 -8 37
-14 43 -14 15 0 130 -71 177 -109 50 -39 133 -119 133 -126 0 -4 15 -25 33
-48 19 -23 51 -78 72 -122 21 -44 42 -88 47 -97 4 -10 18 -77 30 -149 l22
-132 -23 -135 c-12 -74 -26 -142 -31 -151 -5 -9 -27 -54 -49 -101 -22 -47 -61
-108 -86 -137 -25 -28 -45 -55 -45 -59 0 -11 -52 -64 -62 -64 -5 0 -32 -18
-61 -40 -71 -55 -68 -53 -107 -72 -149 -73 -231 -91 -405 -91 -127 0 -161 3
-225 22 -71 21 -127 43 -160 63 -8 4 -28 15 -45 22 -49 23 -85 56 -85 78 0 11
27 50 61 86 67 73 87 107 160 267 18 41 42 142 51 220 19 166 -10 320 -91 485
-47 97 -54 107 -120 186 -34 39 -61 79 -61 87 0 9 12 25 28 36 15 12 32 24 37
28 37 29 199 93 233 93 10 0 22 4 28 9 15 15 70 19 219 16 99 -2 156 -8 195
-20z m-1232 -1 c12 -2 22 -9 22 -15 0 -9 -80 -121 -401 -564 -47 -66 -177
-245 -288 -398 l-201 -279 -30 64 c-16 34 -30 70 -30 79 0 8 13 33 29 55 15
21 194 269 396 549 202 281 373 513 379 517 10 7 69 3 124 -8z m-222 -10 c-6
-15 -100 -147 -341 -479 -56 -77 -158 -219 -228 -316 -69 -96 -135 -186 -145
-199 l-20 -24 -11 39 c-6 22 -11 69 -11 104 l0 63 275 382 c152 209 281 388
288 397 13 17 112 45 166 48 26 1 32 -2 27 -15z m386 -36 c32 -13 58 -28 58
-33 0 -12 -6 -20 -161 -235 -58 -80 -169 -233 -246 -340 -409 -568 -546 -755
-553 -758 -7 -3 -90 90 -90 102 0 3 58 86 128 183 71 98 258 358 417 578 384
533 378 525 384 525 3 0 31 -10 63 -22z m-907 -348 c-120 -165 -220 -299 -222
-296 -10 10 21 124 53 194 71 156 175 279 308 366 38 25 72 44 74 41 2 -2 -94
-139 -213 -305z m1071 259 c19 -11 34 -24 34 -28 0 -4 -20 -31 -45 -60 -83
-97 -147 -208 -183 -318 -6 -18 -93 -146 -193 -285 -101 -139 -255 -352 -342
-473 -87 -121 -164 -226 -171 -233 -11 -11 -22 -6 -64 28 -29 22 -52 43 -52
46 0 3 100 144 223 313 122 169 339 470 482 669 143 199 264 362 269 362 5 0
24 -9 42 -21z m166 -126 c26 -26 48 -52 48 -57 0 -5 6 -17 14 -25 35 -40 100
-174 116 -241 26 -107 29 -131 30 -244 0 -86 -6 -142 -21 -205 -33 -139 -131
-317 -216 -391 l-35 -31 -30 28 c-54 51 -124 147 -155 213 -48 102 -61 147
-79 265 -31 208 11 404 124 585 41 66 120 150 141 150 9 0 37 -21 63 -47z
m-434 -743 c-20 -30 -89 -127 -153 -215 -64 -88 -155 -215 -203 -282 -49 -69
-94 -123 -103 -123 -24 0 -119 41 -119 52 0 8 165 239 524 735 l81 111 5 -111
5 -112 -37 -55z m82 -128 l23 -72 -34 -48 c-19 -26 -92 -130 -164 -229 l-130
-182 -40 0 c-56 -1 -115 10 -115 21 0 16 424 598 431 590 4 -4 17 -40 29 -80z
m98 -196 c17 -30 32 -58 32 -63 0 -5 -37 -61 -83 -124 l-83 -114 -65 -18 c-35
-9 -79 -16 -97 -15 l-33 3 113 156 c62 85 124 172 138 192 14 20 30 37 35 37
6 0 25 -25 43 -54z m104 -133 c10 -9 18 -21 18 -27 0 -14 -107 -86 -127 -86
-15 0 -5 17 55 98 28 37 29 37 54 15z"/>
<path d="M1955 2254 c-44 -8 -84 -19 -89 -24 -6 -6 -16 -10 -24 -10 -18 0
-125 -51 -134 -64 -11 -17 -11 -18 31 -69 22 -26 58 -86 81 -135 24 -48 46
-94 51 -103 4 -9 11 -34 15 -55 3 -22 12 -45 18 -53 7 -9 11 -87 11 -236 0
-149 -4 -227 -11 -236 -6 -8 -15 -31 -18 -53 -4 -21 -25 -75 -46 -120 -44 -91
-52 -105 -96 -161 -53 -69 -53 -79 8 -108 29 -13 64 -28 78 -32 14 -4 30 -11
35 -15 6 -4 61 -16 123 -26 111 -17 114 -17 227 4 112 20 139 30 304 117 38
20 191 169 191 186 0 6 13 28 28 48 37 46 87 168 103 249 13 72 8 324 -8 344
-6 7 -13 27 -17 43 -12 51 -66 153 -116 220 -34 46 -156 159 -195 182 -106 62
-190 93 -290 109 -110 17 -157 16 -260 -2z"/>
<path d="M1470 1640 l0 -79 -76 -3 c-59 -2 -79 -7 -87 -20 -21 -32 8 -48 89
-48 l74 0 0 -74 c0 -70 1 -74 25 -78 13 -3 27 -3 30 0 3 3 5 38 5 78 l0 73 78
3 77 3 0 30 0 30 -77 3 -78 3 0 79 0 80 -30 0 -30 0 0 -80z"/>
</g>
</svg>
