<svg version="1.0" xmlns="http://www.w3.org/2000/svg"
 width="24" height="24" viewBox="0 0 64.000000 64.000000"
 preserveAspectRatio="xMidYMid meet" fill="#000000">

<g transform="translate(0.000000,64.000000) scale(0.100000,-0.100000)"
 stroke="none">
<path d="M231 558 c-61 -33 -84 -77 -78 -151 4 -44 2 -60 -9 -64 -21 -8 -17
-60 5 -82 11 -11 25 -38 31 -59 5 -22 17 -45 25 -52 9 -8 15 -30 15 -56 0 -53
16 -64 94 -64 79 0 86 4 86 59 0 29 7 57 20 76 11 17 20 40 20 53 0 12 6 25
14 28 14 6 36 54 36 80 0 8 -7 14 -15 14 -12 0 -15 14 -14 69 1 78 -7 100 -57
137 -50 38 -115 43 -173 12z m139 -132 l0 -29 -25 27 c-27 30 -58 31 -63 3 -2
-11 8 -23 29 -35 48 -26 69 -49 69 -77 0 -35 -38 -57 -94 -53 -45 3 -46 3 -46
38 1 33 1 34 15 16 8 -11 15 -23 15 -27 0 -11 32 -20 51 -14 32 10 20 39 -29
70 -53 34 -64 65 -36 96 14 15 28 19 66 17 46 -3 48 -4 48 -32z"/>
</g>
</svg>
