<svg width="40" height="30" viewBox="0 0 40 30" stroke-width="2" stroke="#404040" fill="white" xmlns="http://www.w3.org/2000/svg">
<path d="M0.913538 19.213L16.9784 0.785573L38.7134 28.663L0.913538 19.213Z"/>
</svg>
